{
  "2008": 32.075471698113205,
  "2009": 31.54034229828851,
  "2010": 43.77564979480164,
  "2011": 34.41367118444313,
  "2012": 30.56234718826406,
  "2013": 38.0184331797235,
  "2014": 36.143410852713174,
  "2015": 38.07776962582538,
  "2016": 44.4543429844098,
  "2017": 36.85446009389671
}